<?xml version="1.0" encoding="UTF-8" standalone="no"?>
<!-- Created with Inkscape (http://www.inkscape.org/) -->

<svg
   width="512"
   height="512"
   viewBox="0 0 512 512"
   version="1.1"
   id="svg1"
   inkscape:version="1.3 (0e150ed6c4, 2023-07-21)"
   sodipodi:docname="logo.svg"
   inkscape:export-filename="logo.png"
   inkscape:export-xdpi="24"
   inkscape:export-ydpi="24"
   xmlns:inkscape="http://www.inkscape.org/namespaces/inkscape"
   xmlns:sodipodi="http://sodipodi.sourceforge.net/DTD/sodipodi-0.dtd"
   xmlns="http://www.w3.org/2000/svg"
   xmlns:svg="http://www.w3.org/2000/svg">
  <sodipodi:namedview
     id="namedview1"
     pagecolor="#ffffff"
     bordercolor="#000000"
     borderopacity="0.25"
     inkscape:showpageshadow="2"
     inkscape:pageopacity="0.0"
     inkscape:pagecheckerboard="0"
     inkscape:deskcolor="#d1d1d1"
     inkscape:document-units="px"
     inkscape:export-bgcolor="#ffffff00"
     inkscape:zoom="1.5449219"
     inkscape:cx="255.67636"
     inkscape:cy="307.78255"
     inkscape:window-width="1920"
     inkscape:window-height="997"
     inkscape:window-x="801"
     inkscape:window-y="0"
     inkscape:window-maximized="1"
     inkscape:current-layer="layer1" />
  <defs
     id="defs1" />
  <g
     inkscape:label="Layer 1"
     inkscape:groupmode="layer"
     id="layer1">
    <rect
       style="fill:#a12463;fill-opacity:1;stroke:#161616;stroke-width:13.6274;stroke-linecap:round;stroke-linejoin:round;stroke-opacity:1"
       id="rect2"
       width="498.37262"
       height="498.37262"
       x="6.8136883"
       y="6.8136883"
       rx="60.349812" />
    <g
       id="g21"
       inkscape:label="Wonky Arrow"
       transform="rotate(9.0754613,423.35321,337.10662)">
      <path
         style="fill:#85f9f0;fill-opacity:1;stroke:#161616;stroke-width:16.6834;stroke-linecap:round;stroke-linejoin:round;stroke-opacity:1"
         d="m 138.85521,314.7131 94.89973,-64.25165 -35.30488,-35.30487 155.11321,-50.4783 -44.50533,161.08618 -32.58252,-32.58252 -85.86691,100.30633 z"
         id="path1"
         sodipodi:nodetypes="cccccccc" />
      <path
         style="fill:#a12463;fill-opacity:1;stroke:#161616;stroke-width:14;stroke-linecap:round;stroke-linejoin:round;stroke-opacity:1"
         d="m 138.85521,314.7131 75.42144,-50.92014 23.65589,75.87737 -47.32403,53.81794 -51.7533,-78.77517"
         id="path2" />
    </g>
  </g>
</svg>
