[gd_scene load_steps=2 format=3 uid="uid://doljtj4ru44dr"]

[ext_resource type="Script" path="res://scenes/networking/multiplayer_server.gd" id="1_33akk"]

[node name="MultiplayerServer" type="Node"]
script = ExtResource("1_33akk")
